@startuml

start
:Créer;
:Nommer l'article;
if (Article vendable ?) then (oui)
  :Cocher "Peut être vendu";
  :Insérer une image de l'article;
  :Définir le prix de vente;
  :Vente > Définir la politique de facturation;
  if (Article à vendre en PdV ?) then (oui)
    :Point de vente > Cocher "Disponible dans le PdV";
    :Définir la "Catégorie de Point de Vente";
  endif
endif
if (Article achetable ?) then(oui)
  :Cocher "Peut être acheté";
  :Cliquer "Mettre à jour le coût";
endif
if (Article à stocker ?) then (oui)
  :Type d'article "Article stockable";
endif
:Sauvegarder;
stop

@enduml
